tests/tb_EEL/tb_EEL.vcd
$version Generated by VerilatedVcd $end
$timescale 1ps $end
 $scope module $rootio $end
 $upscope $end
 $scope module $unit $end
  $var wire 32 {! XLEN [31:0] $end
 $upscope $end
 $scope module tb_EEL $end
  $var wire 1 y! CLK $end
  $var wire 1 z! RST $end
  $scope module UUT $end
   $var wire 1 y! CLK $end
   $var wire 1 z! RST $end
   $scope module fd $end
    $var wire 32 # PC [31:0] $end
    $var wire 32 $ NEXTPC [31:0] $end
    $var wire 32 % IR [31:0] $end
    $var wire 2 & PC_SEL [1:0] $end
    $var wire 32 ' RS1 [31:0] $end
    $var wire 32 ( RS2 [31:0] $end
    $var wire 5 ) ADDR1 [4:0] $end
    $var wire 5 * ADDR2 [4:0] $end
    $var wire 5 + WADDR [4:0] $end
    $var wire 2 , RF_SEL [1:0] $end
    $var wire 1 - REG_WRITE $end
    $var wire 3 . IMM_SEL [2:0] $end
    $var wire 32 / IMM [31:0] $end
    $var wire 4 0 ALU_FUN [3:0] $end
    $var wire 1 1 SRC_A_SEL $end
    $var wire 2 2 SRC_B_SEL [1:0] $end
    $var wire 32 3 ALU_RESULT [31:0] $end
    $var wire 1 4 ZERO $end
    $var wire 1 5 MEM_WRITE $end
    $var wire 1 6 MEM_READ $end
    $var wire 2 7 BYTE_SEL [1:0] $end
    $var wire 1 8 SIGN $end
    $var wire 1 9 BRANCH $end
    $var wire 3 : BR_TYPE [2:0] $end
    $var wire 1 ; JUMP $end
    $var wire 1 < STALL $end
    $var wire 1 = FLUSH $end
   $upscope $end
   $scope module de $end
    $var wire 32 > PC [31:0] $end
    $var wire 32 ? NEXTPC [31:0] $end
    $var wire 32 @ IR [31:0] $end
    $var wire 2 A PC_SEL [1:0] $end
    $var wire 32 B RS1 [31:0] $end
    $var wire 32 C RS2 [31:0] $end
    $var wire 5 D ADDR1 [4:0] $end
    $var wire 5 E ADDR2 [4:0] $end
    $var wire 5 F WADDR [4:0] $end
    $var wire 2 G RF_SEL [1:0] $end
    $var wire 1 H REG_WRITE $end
    $var wire 3 I IMM_SEL [2:0] $end
    $var wire 32 J IMM [31:0] $end
    $var wire 4 K ALU_FUN [3:0] $end
    $var wire 1 L SRC_A_SEL $end
    $var wire 2 M SRC_B_SEL [1:0] $end
    $var wire 32 N ALU_RESULT [31:0] $end
    $var wire 1 O ZERO $end
    $var wire 1 P MEM_WRITE $end
    $var wire 1 Q MEM_READ $end
    $var wire 2 R BYTE_SEL [1:0] $end
    $var wire 1 S SIGN $end
    $var wire 1 T BRANCH $end
    $var wire 3 U BR_TYPE [2:0] $end
    $var wire 1 V JUMP $end
    $var wire 1 W STALL $end
    $var wire 1 X FLUSH $end
   $upscope $end
   $scope module em $end
    $var wire 32 Y PC [31:0] $end
    $var wire 32 Z NEXTPC [31:0] $end
    $var wire 32 [ IR [31:0] $end
    $var wire 2 \ PC_SEL [1:0] $end
    $var wire 32 ] RS1 [31:0] $end
    $var wire 32 ^ RS2 [31:0] $end
    $var wire 5 _ ADDR1 [4:0] $end
    $var wire 5 ` ADDR2 [4:0] $end
    $var wire 5 a WADDR [4:0] $end
    $var wire 2 b RF_SEL [1:0] $end
    $var wire 1 c REG_WRITE $end
    $var wire 3 d IMM_SEL [2:0] $end
    $var wire 32 e IMM [31:0] $end
    $var wire 4 f ALU_FUN [3:0] $end
    $var wire 1 g SRC_A_SEL $end
    $var wire 2 h SRC_B_SEL [1:0] $end
    $var wire 32 i ALU_RESULT [31:0] $end
    $var wire 1 j ZERO $end
    $var wire 1 k MEM_WRITE $end
    $var wire 1 l MEM_READ $end
    $var wire 2 m BYTE_SEL [1:0] $end
    $var wire 1 n SIGN $end
    $var wire 1 o BRANCH $end
    $var wire 3 p BR_TYPE [2:0] $end
    $var wire 1 q JUMP $end
    $var wire 1 r STALL $end
    $var wire 1 s FLUSH $end
   $upscope $end
   $scope module mw $end
    $var wire 32 t PC [31:0] $end
    $var wire 32 u NEXTPC [31:0] $end
    $var wire 32 v IR [31:0] $end
    $var wire 2 w PC_SEL [1:0] $end
    $var wire 32 x RS1 [31:0] $end
    $var wire 32 y RS2 [31:0] $end
    $var wire 5 z ADDR1 [4:0] $end
    $var wire 5 { ADDR2 [4:0] $end
    $var wire 5 | WADDR [4:0] $end
    $var wire 2 } RF_SEL [1:0] $end
    $var wire 1 ~ REG_WRITE $end
    $var wire 3 !! IMM_SEL [2:0] $end
    $var wire 32 "! IMM [31:0] $end
    $var wire 4 #! ALU_FUN [3:0] $end
    $var wire 1 $! SRC_A_SEL $end
    $var wire 2 %! SRC_B_SEL [1:0] $end
    $var wire 32 &! ALU_RESULT [31:0] $end
    $var wire 1 '! ZERO $end
    $var wire 1 (! MEM_WRITE $end
    $var wire 1 )! MEM_READ $end
    $var wire 2 *! BYTE_SEL [1:0] $end
    $var wire 1 +! SIGN $end
    $var wire 1 ,! BRANCH $end
    $var wire 3 -! BR_TYPE [2:0] $end
    $var wire 1 .! JUMP $end
    $var wire 1 /! STALL $end
    $var wire 1 0! FLUSH $end
   $upscope $end
   $var wire 32 1! pc_in [31:0] $end
   $var wire 32 1! next_pc [31:0] $end
   $var wire 32 2! pc_out [31:0] $end
   $var wire 32 3! ir [31:0] $end
   $var wire 32 4! rs1 [31:0] $end
   $var wire 32 5! rs2 [31:0] $end
   $var wire 32 6! w_data [31:0] $end
   $var wire 2 7! pc_sel [1:0] $end
   $var wire 2 8! rf_sel [1:0] $end
   $var wire 1 9! reg_write $end
   $var wire 1 :! mem_write $end
   $var wire 1 ;! mem_read $end
   $var wire 2 <! byte_sel [1:0] $end
   $var wire 1 =! sign $end
   $var wire 1 >! branch $end
   $var wire 3 ?! br_type [2:0] $end
   $var wire 1 @! jump $end
   $var wire 4 A! alu_fun [3:0] $end
   $var wire 1 B! src_a_sel $end
   $var wire 2 C! src_b_sel [1:0] $end
   $var wire 3 D! imm_sel [2:0] $end
   $var wire 32 E! imm [31:0] $end
   $var wire 32 F! alu_op_a [31:0] $end
   $var wire 32 G! alu_op_b [31:0] $end
   $var wire 32 H! alu_result [31:0] $end
   $var wire 1 I! zero $end
   $var wire 32 J! dout [31:0] $end
   $scope module ALU_SRC_A $end
    $var wire 32 {! n [31:0] $end
    $var wire 1 L SEL $end
    $var wire 32 B D0 [31:0] $end
    $var wire 32 J D1 [31:0] $end
    $var wire 32 F! DOUT [31:0] $end
   $upscope $end
   $scope module ALU_SRC_B $end
    $var wire 32 {! n [31:0] $end
    $var wire 2 M SEL [1:0] $end
    $var wire 32 C D0 [31:0] $end
    $var wire 32 J D1 [31:0] $end
    $var wire 32 > D2 [31:0] $end
    $var wire 32 |! D3 [31:0] $end
    $var wire 32 G! DOUT [31:0] $end
   $upscope $end
   $scope module CTRL_UNIT $end
    $var wire 7 K! OPCODE [6:0] $end
    $var wire 3 L! FUNC3 [2:0] $end
    $var wire 1 M! FUNC7 $end
    $var wire 2 8! RF_SEL [1:0] $end
    $var wire 1 B! SRC_A_SEL $end
    $var wire 2 C! SRC_B_SEL [1:0] $end
    $var wire 4 A! ALU_FUN [3:0] $end
    $var wire 1 9! REG_WRITE $end
    $var wire 1 :! MEM_WRITE $end
    $var wire 1 ;! MEM_READ $end
    $var wire 2 <! BYTE_SEL [1:0] $end
    $var wire 1 =! SIGN $end
    $var wire 3 D! IMM_SEL [2:0] $end
    $var wire 1 >! BRANCH $end
    $var wire 3 ?! BR_TYPE [2:0] $end
    $var wire 1 @! JUMP $end
    $var wire 2 7! PC_SEL [1:0] $end
   $upscope $end
   $scope module DATA_MEMORY $end
    $var wire 32 }! ADDR_DEPTH [31:0] $end
    $var wire 1 y! CLK $end
    $var wire 1 l RDEN $end
    $var wire 1 k WEN $end
    $var wire 2 m BYTE_SEL [1:0] $end
    $var wire 1 n SIGN $end
    $var wire 14 N! ADDR [13:0] $end
    $var wire 32 ^ DATA_IN [31:0] $end
    $var wire 32 J! DATA_OUT [31:0] $end
    $var wire 32 O! data_out [31:0] $end
    $var wire 32 P! data_in [31:0] $end
    $var wire 14 Q! actual_addr [13:0] $end
   $upscope $end
   $scope module EEL_ALU $end
    $var wire 32 {! n [31:0] $end
    $var wire 32 F! OP_A [31:0] $end
    $var wire 32 G! OP_B [31:0] $end
    $var wire 4 K ALU_FUN [3:0] $end
    $var wire 1 I! ZERO $end
    $var wire 32 H! RESULT [31:0] $end
   $upscope $end
   $scope module IMM_GEN $end
    $var wire 25 R! IR [24:0] $end
    $var wire 3 D! IMM_SEL [2:0] $end
    $var wire 32 E! IMM [31:0] $end
    $var wire 32 S! U_TYPE [31:0] $end
    $var wire 32 T! I_TYPE [31:0] $end
    $var wire 32 U! S_TYPE [31:0] $end
    $var wire 32 V! B_TYPE [31:0] $end
    $var wire 32 W! J_TYPE [31:0] $end
   $upscope $end
   $scope module PC_MUX $end
    $var wire 32 {! n [31:0] $end
    $var wire 2 ~! SEL [1:0] $end
    $var wire 32 1! D0 [31:0] $end
    $var wire 32 !" D1 [31:0] $end
    $var wire 32 "" D2 [31:0] $end
    $var wire 32 #" D3 [31:0] $end
    $var wire 32 1! DOUT [31:0] $end
   $upscope $end
   $scope module PROG_COUNTER $end
    $var wire 1 y! CLK $end
    $var wire 1 z! RST $end
    $var wire 1 $" PC_EN $end
    $var wire 32 1! PC_IN [31:0] $end
    $var wire 32 2! PC_OUT [31:0] $end
   $upscope $end
   $scope module PROG_MEMORY $end
    $var wire 32 }! ADDR_DEPTH [31:0] $end
    $var wire 1 y! CLK $end
    $var wire 1 $" RDEN $end
    $var wire 14 X! ADDR [13:0] $end
    $var wire 32 3! MEM_OUT [31:0] $end
   $upscope $end
   $scope module RF $end
    $var wire 1 y! CLK $end
    $var wire 5 ) ADDR1 [4:0] $end
    $var wire 5 * ADDR2 [4:0] $end
    $var wire 5 | W_ADDR [4:0] $end
    $var wire 1 ~ W_EN $end
    $var wire 32 6! W_DATA [31:0] $end
    $var wire 32 4! RS1 [31:0] $end
    $var wire 32 5! RS2 [31:0] $end
    $var wire 32 Y! reg_32x32[0] [31:0] $end
    $var wire 32 Z! reg_32x32[1] [31:0] $end
    $var wire 32 [! reg_32x32[2] [31:0] $end
    $var wire 32 \! reg_32x32[3] [31:0] $end
    $var wire 32 ]! reg_32x32[4] [31:0] $end
    $var wire 32 ^! reg_32x32[5] [31:0] $end
    $var wire 32 _! reg_32x32[6] [31:0] $end
    $var wire 32 `! reg_32x32[7] [31:0] $end
    $var wire 32 a! reg_32x32[8] [31:0] $end
    $var wire 32 b! reg_32x32[9] [31:0] $end
    $var wire 32 c! reg_32x32[10] [31:0] $end
    $var wire 32 d! reg_32x32[11] [31:0] $end
    $var wire 32 e! reg_32x32[12] [31:0] $end
    $var wire 32 f! reg_32x32[13] [31:0] $end
    $var wire 32 g! reg_32x32[14] [31:0] $end
    $var wire 32 h! reg_32x32[15] [31:0] $end
    $var wire 32 i! reg_32x32[16] [31:0] $end
    $var wire 32 j! reg_32x32[17] [31:0] $end
    $var wire 32 k! reg_32x32[18] [31:0] $end
    $var wire 32 l! reg_32x32[19] [31:0] $end
    $var wire 32 m! reg_32x32[20] [31:0] $end
    $var wire 32 n! reg_32x32[21] [31:0] $end
    $var wire 32 o! reg_32x32[22] [31:0] $end
    $var wire 32 p! reg_32x32[23] [31:0] $end
    $var wire 32 q! reg_32x32[24] [31:0] $end
    $var wire 32 r! reg_32x32[25] [31:0] $end
    $var wire 32 s! reg_32x32[26] [31:0] $end
    $var wire 32 t! reg_32x32[27] [31:0] $end
    $var wire 32 u! reg_32x32[28] [31:0] $end
    $var wire 32 v! reg_32x32[29] [31:0] $end
    $var wire 32 w! reg_32x32[30] [31:0] $end
    $var wire 32 x! reg_32x32[31] [31:0] $end
   $upscope $end
   $scope module RF_MUX $end
    $var wire 32 {! n [31:0] $end
    $var wire 2 } SEL [1:0] $end
    $var wire 32 u D0 [31:0] $end
    $var wire 32 %" D1 [31:0] $end
    $var wire 32 J! D2 [31:0] $end
    $var wire 32 &! D3 [31:0] $end
    $var wire 32 6! DOUT [31:0] $end
   $upscope $end
  $upscope $end
 $upscope $end
$enddefinitions $end


#0
b00000000000000000000000000000000 #
b00000000000000000000000000000000 $
b00000000000000000000000000000000 %
b00 &
b00000000000000000000000000000000 '
b00000000000000000000000000000000 (
b00000 )
b00000 *
b00000 +
b00 ,
0-
b000 .
b00000000000000000000000000000000 /
b0000 0
01
b00 2
b00000000000000000000000000000000 3
04
05
06
b00 7
08
09
b000 :
0;
0<
0=
b00000000000000000000000000000000 >
b00000000000000000000000000000000 ?
b00000000000000000000000000000000 @
b00 A
b00000000000000000000000000000000 B
b00000000000000000000000000000000 C
b00000 D
b00000 E
b00000 F
b00 G
0H
b000 I
b00000000000000000000000000000000 J
b0000 K
0L
b00 M
b00000000000000000000000000000000 N
0O
0P
0Q
b00 R
0S
0T
b000 U
0V
0W
0X
b00000000000000000000000000000000 Y
b00000000000000000000000000000000 Z
b00000000000000000000000000000000 [
b00 \
b00000000000000000000000000000000 ]
b00000000000000000000000000000000 ^
b00000 _
b00000 `
b00000 a
b00 b
0c
b000 d
b00000000000000000000000000000000 e
b0000 f
0g
b00 h
b00000000000000000000000000000000 i
0j
0k
0l
b00 m
0n
0o
b000 p
0q
0r
0s
b00000000000000000000000000000000 t
b00000000000000000000000000000000 u
b00000000000000000000000000000000 v
b00 w
b00000000000000000000000000000000 x
b00000000000000000000000000000000 y
b00000 z
b00000 {
b00000 |
b00 }
0~
b000 !!
b00000000000000000000000000000000 "!
b0000 #!
0$!
b00 %!
b00000000000000000000000000000000 &!
0'!
0(!
0)!
b00 *!
0+!
0,!
b000 -!
0.!
0/!
00!
b00000000000000000000000000000100 1!
b00000000000000000000000000000000 2!
b00000000000000000000000000000000 3!
b00000000000000000000000000000000 4!
b00000000000000000000000000000000 5!
b00000000000000000000000000000000 6!
b00 7!
b00 8!
09!
0:!
0;!
b00 <!
0=!
0>!
b000 ?!
0@!
b0000 A!
0B!
b00 C!
b000 D!
b00000000000000000000000000000000 E!
b00000000000000000000000000000000 F!
b00000000000000000000000000000000 G!
b00000000000000000000000000000000 H!
1I!
b00000000000000000000000000000000 J!
b0000000 K!
b000 L!
0M!
b00000000000000 N!
b00000000000000000000000000000000 O!
b00000000000000000000000000000000 P!
b10000000000000 Q!
b0000000000000000000000000 R!
b00000000000000000000000000000000 S!
b00000000000000000000000000000000 T!
b00000000000000000000000000000000 U!
b00000000000000000000000000000000 V!
b00000000000000000000000000000000 W!
b00000000000000 X!
b00000000000000000000000000000000 Y!
b00000000000000000000000000000000 Z!
b00000000000000000000000000000000 [!
b00000000000000000000000000000000 \!
b00000000000000000000000000000000 ]!
b00000000000000000000000000000000 ^!
b00000000000000000000000000000000 _!
b00000000000000000000000000000000 `!
b00000000000000000000000000000000 a!
b00000000000000000000000000000000 b!
b00000000000000000000000000000000 c!
b00000000000000000000000000000000 d!
b00000000000000000000000000000000 e!
b00000000000000000000000000000000 f!
b00000000000000000000000000000000 g!
b00000000000000000000000000000000 h!
b00000000000000000000000000000000 i!
b00000000000000000000000000000000 j!
b00000000000000000000000000000000 k!
b00000000000000000000000000000000 l!
b00000000000000000000000000000000 m!
b00000000000000000000000000000000 n!
b00000000000000000000000000000000 o!
b00000000000000000000000000000000 p!
b00000000000000000000000000000000 q!
b00000000000000000000000000000000 r!
b00000000000000000000000000000000 s!
b00000000000000000000000000000000 t!
b00000000000000000000000000000000 u!
b00000000000000000000000000000000 v!
b00000000000000000000000000000000 w!
b00000000000000000000000000000000 x!
0y!
0z!
b00000000000000000000000000100000 {!
b00000000000000000000000000000000 |!
b00000000000000000000000000001110 }!
b00 ~!
b00000000000000000000000000000000 !"
b00000000000000000000000000000000 ""
b00000000000000000000000000000000 #"
1$"
b00000000000000000000000000000000 %"
#5000
#10000
b00000000000000000000000000000100 $
1j
b00000000000000000000000000001000 1!
b00000000000000000000000000000100 2!
b00000000000100000000000010010111 3!
b00000000000001 X!
1y!
#15000
0y!
#20000
b00000000000000000000000000000100 #
b00000000000000000000000000001000 $
b00000000000100000000000010010111 %
b00001 *
b00001 +
b00000000000000000000000000000100 ?
b00000000000000000000000000001100 1!
b00000000000000000000000000001000 2!
b00000000000000000000000000010011 3!
b11 8!
19!
1B!
b10 C!
b011 D!
b00000000000100000000000000000000 E!
b0010111 K!
b0000000000010000000000001 R!
b00000000000100000000000000000000 S!
b00000000000000000000000000000001 T!
b00000000000000000000000000000001 U!
b00000000000000000000100000000000 V!
b00000000000000000000100000000000 W!
b00000000000010 X!
1y!
#25000
0y!
#30000
b00000000000000000000000000001000 #
b00000000000000000000000000001100 $
b00000000000000000000000000010011 %
b00000 *
b00000 +
b00000000000000000000000000000100 >
b00000000000000000000000000001000 ?
b00000000000100000000000010010111 @
b00001 E
b00001 F
b11 G
1H
b011 I
b00000000000100000000000000000000 J
1L
b10 M
b00000000000000000000000000000100 Z
b00000000000000000000000000010000 1!
b00000000000000000000000000001100 2!
0B!
b01 C!
b000 D!
b00000000000000000000000000000000 E!
b00000000000100000000000000000000 F!
b00000000000000000000000000000100 G!
b00000000000100000000000000000100 H!
0I!
b0010011 K!
b0000000000000000000000000 R!
b00000000000000000000000000000000 S!
b00000000000000000000000000000000 T!
b00000000000000000000000000000000 U!
b00000000000000000000000000000000 V!
b00000000000000000000000000000000 W!
b00000000000011 X!
1y!
#35000
0y!
#40000
b00000000000000000000000000001100 #
b00000000000000000000000000010000 $
b00000000000000000000000000001000 >
b00000000000000000000000000001100 ?
b00000000000000000000000000010011 @
b00000 E
b00000 F
b000 I
b00000000000000000000000000000000 J
0L
b01 M
b00000000000000000000000000000100 Y
b00000000000000000000000000001000 Z
b00000000000100000000000010010111 [
b00001 `
b00001 a
b11 b
1c
b00000000000100000000000000000100 i
0j
b00000000000000000000000000000100 u
b00000000000000000000000000010100 1!
b00000000000000000000000000010000 2!
b00000000000000000110010010110111 3!
b00000000000000000000000000000100 6!
b00000000000000000000000000000000 F!
b00000000000000000000000000000000 G!
b00000000000000000000000000000000 H!
1I!
b00000000000001 N!
b10000000000001 Q!
b00000000000100 X!
1y!
#45000
0y!
#50000
b00000000000000000000000000010000 #
b00000000000000000000000000010100 $
b00000000000000000110010010110111 %
b01001 +
b00000000000000000000000000001100 >
b00000000000000000000000000010000 ?
b00000000000000000000000000001000 Y
b00000000000000000000000000001100 Z
b00000000000000000000000000010011 [
b00000 `
b00000 a
b00000000000000000000000000000000 i
1j
b00000000000000000000000000000100 t
b00000000000000000000000000001000 u
b00000000000100000000000010010111 v
b00001 {
b00001 |
b11 }
1~
b00000000000100000000000000000100 &!
b00000000000000000000000000011000 1!
b00000000000000000000000000010100 2!
b00000000000000000000000000010011 3!
b00000000000100000000000000000100 6!
b1001 A!
1B!
b00 C!
b011 D!
b00000000000000000110000000000000 E!
b0110111 K!
b110 L!
b00000000000000 N!
b10000000000000 Q!
b0000000000000000011001001 R!
b00000000000000000110000000000000 S!
b00000000000000000000000000001001 U!
b00000000000000000000100000001000 V!
b00000000000000000110000000000000 W!
b00000000000101 X!
1y!
#55000
0y!
#60000
b00000000000000000000000000010100 #
b00000000000000000000000000011000 $
b00000000000000000000000000010011 %
b00000 +
b00000000000000000000000000010000 >
b00000000000000000000000000010100 ?
b00000000000000000110010010110111 @
b01001 F
b011 I
b00000000000000000110000000000000 J
b1001 K
1L
b00 M
b00000000000000000000000000001100 Y
b00000000000000000000000000010000 Z
b00000000000000000000000000001000 t
b00000000000000000000000000001100 u
b00000000000000000000000000010011 v
b00000 {
b00000 |
b00000000000000000000000000000000 &!
b00000000000000000000000000011100 1!
b00000000000000000000000000011000 2!
b00000000000000000000000000000000 6!
b0000 A!
0B!
b01 C!
b000 D!
b00000000000000000000000000000000 E!
b00000000000000000110000000000000 F!
b00000000000000000110000000000000 H!
0I!
b0010011 K!
b000 L!
b0000000000000000000000000 R!
b00000000000000000000000000000000 S!
b00000000000000000000000000000000 U!
b00000000000000000000000000000000 V!
b00000000000000000000000000000000 W!
b00000000000110 X!
b00000000000100000000000000000100 Z!
1y!
#65000
0y!
#70000
b00000000000000000000000000011000 #
b00000000000000000000000000011100 $
b00000000000000000000000000010100 >
b00000000000000000000000000011000 ?
b00000000000000000000000000010011 @
b00000 F
b000 I
b00000000000000000000000000000000 J
b0000 K
0L
b01 M
b00000000000000000000000000010000 Y
b00000000000000000000000000010100 Z
b00000000000000000110010010110111 [
b01001 a
b00000000000000000110000000000000 i
0j
b00000000000000000000000000001100 t
b00000000000000000000000000010000 u
b00000000000000000000000000100000 1!
b00000000000000000000000000011100 2!
b00000110010000001000000010010011 3!
b00000000000000000000000000000000 F!
b00000000000000000000000000000000 H!
1I!
b01100000000000 N!
b11100000000000 Q!
b00000000000111 X!
1y!
#75000
0y!
#80000
b00000000000000000000000000011100 #
b00000000000000000000000000100000 $
b00000110010000001000000010010011 %
b00001 )
b00100 *
b00001 +
b00000000000000000000000000011000 >
b00000000000000000000000000011100 ?
b00000000000000000000000000010100 Y
b00000000000000000000000000011000 Z
b00000000000000000000000000010011 [
b00000 a
b00000000000000000000000000000000 i
1j
b00000000000000000000000000010000 t
b00000000000000000000000000010100 u
b00000000000000000110010010110111 v
b01001 |
b00000000000000000110000000000000 &!
b00000000000000000000000000100100 1!
b00000000000000000000000000100000 2!
b00000000000000000000000000010011 3!
b00000000000100000000000000000100 4!
b00000000000000000110000000000000 6!
b00000000000000000000000001100100 E!
b00000000000000 N!
b10000000000000 Q!
b0000011001000000100000001 R!
b00000110010000001000000000000000 S!
b00000000000000000000000001100100 T!
b00000000000000000000000001100001 U!
b00000000000000000000100001100000 V!
b00000000000000001000000001100100 W!
b00000000001000 X!
1y!
#85000
0y!
#90000
b00000000000000000000000000100000 #
b00000000000000000000000000100100 $
b00000000000000000000000000010011 %
b00000 )
b00000 *
b00000 +
b00000000000000000000000000011100 >
b00000000000000000000000000100000 ?
b00000110010000001000000010010011 @
b00000000000100000000000000000100 B
b00001 D
b00100 E
b00001 F
b00000000000000000000000001100100 J
b00000000000000000000000000011000 Y
b00000000000000000000000000011100 Z
b00000000000000000000000000010100 t
b00000000000000000000000000011000 u
b00000000000000000000000000010011 v
b00000 |
b00000000000000000000000000000000 &!
b00000000000000000000000000101000 1!
b00000000000000000000000000100100 2!
b00000000000000000000000000000000 4!
b00000000000000000000000000000000 6!
b00000000000000000000000000000000 E!
b00000000000100000000000000000100 F!
b00000000000000000000000001100100 G!
b00000000000100000000000001101000 H!
0I!
b0000000000000000000000000 R!
b00000000000000000000000000000000 S!
b00000000000000000000000000000000 T!
b00000000000000000000000000000000 U!
b00000000000000000000000000000000 V!
b00000000000000000000000000000000 W!
b00000000001001 X!
b00000000000000000110000000000000 b!
1y!
#95000
0y!
#100000
b00000000000000000000000000100100 #
b00000000000000000000000000101000 $
b00000000000000000000000000100000 >
b00000000000000000000000000100100 ?
b00000000000000000000000000010011 @
b00000000000000000000000000000000 B
b00000 D
b00000 E
b00000 F
b00000000000000000000000000000000 J
b00000000000000000000000000011100 Y
b00000000000000000000000000100000 Z
b00000110010000001000000010010011 [
b00000000000100000000000000000100 ]
b00001 _
b00100 `
b00001 a
b00000000000100000000000001101000 i
0j
b00000000000000000000000000011000 t
b00000000000000000000000000011100 u
b00000000000000000000000000101100 1!
b00000000000000000000000000101000 2!
b00000110010000010000000100010011 3!
b00000000000000000000000000000000 F!
b00000000000000000000000000000000 G!
b00000000000000000000000000000000 H!
1I!
b00000000011010 N!
b10000000011010 Q!
b00000000001010 X!
1y!
#105000
0y!
#110000
b00000000000000000000000000101000 #
b00000000000000000000000000101100 $
b00000110010000010000000100010011 %
b00010 )
b00100 *
b00010 +
b00000000000000000000000000100100 >
b00000000000000000000000000101000 ?
b00000000000000000000000000100000 Y
b00000000000000000000000000100100 Z
b00000000000000000000000000010011 [
b00000000000000000000000000000000 ]
b00000 _
b00000 `
b00000 a
b00000000000000000000000000000000 i
1j
b00000000000000000000000000011100 t
b00000000000000000000000000100000 u
b00000110010000001000000010010011 v
b00000000000100000000000000000100 x
b00001 z
b00100 {
b00001 |
b00000000000100000000000001101000 &!
b00000000000000000000000000110000 1!
b00000000000000000000000000101100 2!
b00000000000000000000000000010011 3!
b00000000000100000000000001101000 6!
b00000000000000000000000001100100 E!
b00000000000000 N!
b10000000000000 Q!
b0000011001000001000000010 R!
b00000110010000010000000000000000 S!
b00000000000000000000000001100100 T!
b00000000000000000000000001100010 U!
b00000000000000000000000001100010 V!
b00000000000000010000000001100100 W!
b00000000001011 X!
1y!
#115000
0y!
#120000
b00000000000000000000000000101100 #
b00000000000000000000000000110000 $
b00000000000000000000000000010011 %
b00000 )
b00000 *
b00000 +
b00000000000000000000000000101000 >
b00000000000000000000000000101100 ?
b00000110010000010000000100010011 @
b00010 D
b00100 E
b00010 F
b00000000000000000000000001100100 J
b00000000000000000000000000100100 Y
b00000000000000000000000000101000 Z
b00000000000000000000000000100000 t
b00000000000000000000000000100100 u
b00000000000000000000000000010011 v
b00000000000000000000000000000000 x
b00000 z
b00000 {
b00000 |
b00000000000000000000000000000000 &!
b00000000000000000000000000110100 1!
b00000000000000000000000000110000 2!
b00000000000000000000000000000000 6!
b00000000000000000000000000000000 E!
b00000000000000000000000001100100 G!
b00000000000000000000000001100100 H!
0I!
b0000000000000000000000000 R!
b00000000000000000000000000000000 S!
b00000000000000000000000000000000 T!
b00000000000000000000000000000000 U!
b00000000000000000000000000000000 V!
b00000000000000000000000000000000 W!
b00000000001100 X!
b00000000000100000000000001101000 Z!
1y!
#125000
0y!
#130000
b00000000000000000000000000110000 #
b00000000000000000000000000110100 $
b00000000000000000000000000101100 >
b00000000000000000000000000110000 ?
b00000000000000000000000000010011 @
b00000 D
b00000 E
b00000 F
b00000000000000000000000000000000 J
b00000000000000000000000000101000 Y
b00000000000000000000000000101100 Z
b00000110010000010000000100010011 [
b00010 _
b00100 `
b00010 a
b00000000000000000000000001100100 i
0j
b00000000000000000000000000100100 t
b00000000000000000000000000101000 u
b00000000000000000000000000111000 1!
b00000000000000000000000000110100 2!
b00000000000000000000000000000000 G!
b00000000000000000000000000000000 H!
1I!
b00000000011001 N!
b10000000011001 Q!
b00000000001101 X!
1y!
#135000
0y!
#140000
b00000000000000000000000000110100 #
b00000000000000000000000000111000 $
b00000000000000000000000000110000 >
b00000000000000000000000000110100 ?
b00000000000000000000000000101100 Y
b00000000000000000000000000110000 Z
b00000000000000000000000000010011 [
b00000 _
b00000 `
b00000 a
b00000000000000000000000000000000 i
1j
b00000000000000000000000000101000 t
b00000000000000000000000000101100 u
b00000110010000010000000100010011 v
b00010 z
b00100 {
b00010 |
b00000000000000000000000001100100 &!
b00000000000000000000000000111100 1!
b00000000000000000000000000111000 2!
b00000000001001001010000000100011 3!
b00000000000000000000000001100100 6!
b00000000000000 N!
b10000000000000 Q!
b00000000001110 X!
1y!
#145000
0y!
#150000
b00000000000000000000000000111000 #
b00000000000000000000000000111100 $
b00000000001001001010000000100011 %
b01001 )
b00010 *
b00000000000000000000000000110100 >
b00000000000000000000000000111000 ?
b00000000000000000000000000110000 Y
b00000000000000000000000000110100 Z
b00000000000000000000000000101100 t
b00000000000000000000000000110000 u
b00000000000000000000000000010011 v
b00000 z
b00000 {
b00000 |
b00000000000000000000000000000000 &!
b00000000000000000000000001000000 1!
b00000000000000000000000000111100 2!
b00000000000000000000000000010011 3!
b00000000000000000110000000000000 4!
b00000000000000000000000001100100 5!
b00000000000000000000000000000000 6!
b00 8!
09!
1:!
b10 <!
b001 D!
b0100011 K!
b010 L!
b0000000000100100101000000 R!
b00000000001001001010000000000000 S!
b00000000000000000000000000000010 T!
b00000000000001001010000000000010 W!
b00000000001111 X!
b00000000000000000000000001100100 [!
1y!
#155000
0y!
#160000
b00000000000000000000000000111100 #
b00000000000000000000000001000000 $
b00000000000000000000000000010011 %
b00000 )
b00000 *
b00000000000000000000000000111000 >
b00000000000000000000000000111100 ?
b00000000001001001010000000100011 @
b00000000000000000110000000000000 B
b00000000000000000000000001100100 C
b01001 D
b00010 E
b00 G
0H
b001 I
1P
b10 R
b00000000000000000000000000110100 Y
b00000000000000000000000000111000 Z
b00000000000000000000000000110000 t
b00000000000000000000000000110100 u
b00000000000000000000000001000100 1!
b00000000000000000000000001000000 2!
b00000000000000000000000000000000 4!
b00000000000000000000000000000000 5!
b11 8!
19!
0:!
b00 <!
b000 D!
b00000000000000000110000000000000 F!
b00000000000000000110000000000000 H!
0I!
b0010011 K!
b000 L!
b0000000000000000000000000 R!
b00000000000000000000000000000000 S!
b00000000000000000000000000000000 T!
b00000000000000000000000000000000 W!
b00000000010000 X!
1y!
#165000
0y!
#170000
b00000000000000000000000001000000 #
b00000000000000000000000001000100 $
b00000000000000000000000000111100 >
b00000000000000000000000001000000 ?
b00000000000000000000000000010011 @
b00000000000000000000000000000000 B
b00000000000000000000000000000000 C
b00000 D
b00000 E
b11 G
1H
b000 I
0P
b00 R
b00000000000000000000000000111000 Y
b00000000000000000000000000111100 Z
b00000000001001001010000000100011 [
b00000000000000000110000000000000 ]
b00000000000000000000000001100100 ^
b01001 _
b00010 `
b00 b
0c
b00000000000000000110000000000000 i
0j
1k
b10 m
b00000000000000000000000000110100 t
b00000000000000000000000000111000 u
b00000000000000000000000001001000 1!
b00000000000000000000000001000100 2!
b00000000000001001010000110000011 3!
b00000000000000000000000000000000 F!
b00000000000000000000000000000000 H!
1I!
b01100000000000 N!
b00000000000000000000000001100100 P!
b11100000000000 Q!
b00000000010001 X!
1y!
#175000
0y!
