tests/tb_EEL/tb_EEL.vcd
$version Generated by VerilatedVcd $end
$timescale 1ps $end
 $scope module $rootio $end
 $upscope $end
 $scope module $unit $end
  $var wire 32 E" XLEN [31:0] $end
  $var wire 7 O" LUI [6:0] $end
  $var wire 7 P" AUIPC [6:0] $end
  $var wire 7 Q" STORE [6:0] $end
  $var wire 7 R" LOAD [6:0] $end
  $var wire 7 S" IMM [6:0] $end
  $var wire 7 T" REG [6:0] $end
  $var wire 7 U" JAL [6:0] $end
  $var wire 7 V" JALR [6:0] $end
  $var wire 7 W" BRANCH [6:0] $end
 $upscope $end
 $scope module tb_EEL $end
  $var wire 1 C" CLK $end
  $var wire 1 D" RST $end
  $scope module UUT $end
   $var wire 1 C" CLK $end
   $var wire 1 D" RST $end
   $scope module fd $end
    $var wire 32 # PC [31:0] $end
    $var wire 32 $ NEXTPC [31:0] $end
    $var wire 32 % IR [31:0] $end
    $var wire 2 & PC_SEL [1:0] $end
    $var wire 32 ' RS1 [31:0] $end
    $var wire 32 ( RS2 [31:0] $end
    $var wire 5 ) ADDR1 [4:0] $end
    $var wire 5 * ADDR2 [4:0] $end
    $var wire 5 + WADDR [4:0] $end
    $var wire 2 , RF_SEL [1:0] $end
    $var wire 1 - REG_WRITE $end
    $var wire 3 . IMM_SEL [2:0] $end
    $var wire 32 / IMM [31:0] $end
    $var wire 4 0 ALU_FUN [3:0] $end
    $var wire 1 1 SRC_A_SEL $end
    $var wire 2 2 SRC_B_SEL [1:0] $end
    $var wire 32 3 ALU_RESULT [31:0] $end
    $var wire 1 4 ZERO $end
    $var wire 1 5 MEM_WRITE $end
    $var wire 1 6 MEM_READ $end
    $var wire 2 7 BYTE_SEL [1:0] $end
    $var wire 1 8 SIGN $end
    $var wire 1 9 BRANCH $end
    $var wire 3 : BR_TYPE [2:0] $end
    $var wire 1 ; JUMP $end
    $var wire 1 < STALL $end
    $var wire 1 = FLUSH $end
   $upscope $end
   $scope module de $end
    $var wire 32 > PC [31:0] $end
    $var wire 32 ? NEXTPC [31:0] $end
    $var wire 32 @ IR [31:0] $end
    $var wire 2 A PC_SEL [1:0] $end
    $var wire 32 B RS1 [31:0] $end
    $var wire 32 C RS2 [31:0] $end
    $var wire 5 D ADDR1 [4:0] $end
    $var wire 5 E ADDR2 [4:0] $end
    $var wire 5 F WADDR [4:0] $end
    $var wire 2 G RF_SEL [1:0] $end
    $var wire 1 H REG_WRITE $end
    $var wire 3 I IMM_SEL [2:0] $end
    $var wire 32 J IMM [31:0] $end
    $var wire 4 K ALU_FUN [3:0] $end
    $var wire 1 L SRC_A_SEL $end
    $var wire 2 M SRC_B_SEL [1:0] $end
    $var wire 32 N ALU_RESULT [31:0] $end
    $var wire 1 O ZERO $end
    $var wire 1 P MEM_WRITE $end
    $var wire 1 Q MEM_READ $end
    $var wire 2 R BYTE_SEL [1:0] $end
    $var wire 1 S SIGN $end
    $var wire 1 T BRANCH $end
    $var wire 3 U BR_TYPE [2:0] $end
    $var wire 1 V JUMP $end
    $var wire 1 W STALL $end
    $var wire 1 X FLUSH $end
   $upscope $end
   $scope module em $end
    $var wire 32 Y PC [31:0] $end
    $var wire 32 Z NEXTPC [31:0] $end
    $var wire 32 [ IR [31:0] $end
    $var wire 2 \ PC_SEL [1:0] $end
    $var wire 32 ] RS1 [31:0] $end
    $var wire 32 ^ RS2 [31:0] $end
    $var wire 5 _ ADDR1 [4:0] $end
    $var wire 5 ` ADDR2 [4:0] $end
    $var wire 5 a WADDR [4:0] $end
    $var wire 2 b RF_SEL [1:0] $end
    $var wire 1 c REG_WRITE $end
    $var wire 3 d IMM_SEL [2:0] $end
    $var wire 32 e IMM [31:0] $end
    $var wire 4 f ALU_FUN [3:0] $end
    $var wire 1 g SRC_A_SEL $end
    $var wire 2 h SRC_B_SEL [1:0] $end
    $var wire 32 i ALU_RESULT [31:0] $end
    $var wire 1 j ZERO $end
    $var wire 1 k MEM_WRITE $end
    $var wire 1 l MEM_READ $end
    $var wire 2 m BYTE_SEL [1:0] $end
    $var wire 1 n SIGN $end
    $var wire 1 o BRANCH $end
    $var wire 3 p BR_TYPE [2:0] $end
    $var wire 1 q JUMP $end
    $var wire 1 r STALL $end
    $var wire 1 s FLUSH $end
   $upscope $end
   $scope module mw $end
    $var wire 32 t PC [31:0] $end
    $var wire 32 u NEXTPC [31:0] $end
    $var wire 32 v IR [31:0] $end
    $var wire 2 w PC_SEL [1:0] $end
    $var wire 32 x RS1 [31:0] $end
    $var wire 32 y RS2 [31:0] $end
    $var wire 5 z ADDR1 [4:0] $end
    $var wire 5 { ADDR2 [4:0] $end
    $var wire 5 | WADDR [4:0] $end
    $var wire 2 } RF_SEL [1:0] $end
    $var wire 1 ~ REG_WRITE $end
    $var wire 3 !! IMM_SEL [2:0] $end
    $var wire 32 "! IMM [31:0] $end
    $var wire 4 #! ALU_FUN [3:0] $end
    $var wire 1 $! SRC_A_SEL $end
    $var wire 2 %! SRC_B_SEL [1:0] $end
    $var wire 32 &! ALU_RESULT [31:0] $end
    $var wire 1 '! ZERO $end
    $var wire 1 (! MEM_WRITE $end
    $var wire 1 )! MEM_READ $end
    $var wire 2 *! BYTE_SEL [1:0] $end
    $var wire 1 +! SIGN $end
    $var wire 1 ,! BRANCH $end
    $var wire 3 -! BR_TYPE [2:0] $end
    $var wire 1 .! JUMP $end
    $var wire 1 /! STALL $end
    $var wire 1 0! FLUSH $end
   $upscope $end
   $var wire 1 1! stall $end
   $var wire 1 2! flush $end
   $var wire 2 3! fwd_rs1 [1:0] $end
   $var wire 2 4! fwd_rs2 [1:0] $end
   $var wire 1 5! fwd_srca $end
   $var wire 1 6! fwd_srcb $end
   $var wire 1 7! fwd_din $end
   $var wire 32 8! rs1_fwd [31:0] $end
   $var wire 32 9! rs2_fwd [31:0] $end
   $var wire 32 :! srca_fwd [31:0] $end
   $var wire 32 ;! srcb_fwd [31:0] $end
   $var wire 32 <! din_fwd [31:0] $end
   $var wire 32 =! pc_in [31:0] $end
   $var wire 32 =! next_pc [31:0] $end
   $var wire 32 >! pc_out [31:0] $end
   $var wire 32 ?! ir [31:0] $end
   $var wire 32 @! rs1 [31:0] $end
   $var wire 32 A! rs2 [31:0] $end
   $var wire 32 B! w_data [31:0] $end
   $var wire 2 C! pc_sel [1:0] $end
   $var wire 2 D! rf_sel [1:0] $end
   $var wire 1 E! reg_write $end
   $var wire 1 F! mem_write $end
   $var wire 1 G! mem_read $end
   $var wire 2 H! byte_sel [1:0] $end
   $var wire 1 I! sign $end
   $var wire 1 J! branch $end
   $var wire 3 K! br_type [2:0] $end
   $var wire 1 L! jump $end
   $var wire 4 M! alu_fun [3:0] $end
   $var wire 1 N! src_a_sel $end
   $var wire 2 O! src_b_sel [1:0] $end
   $var wire 3 P! imm_sel [2:0] $end
   $var wire 32 Q! imm [31:0] $end
   $var wire 32 R! alu_op_a [31:0] $end
   $var wire 32 S! alu_op_b [31:0] $end
   $var wire 32 T! alu_result [31:0] $end
   $var wire 1 U! zero $end
   $var wire 32 V! dout [31:0] $end
   $scope module ALU_SRC_A $end
    $var wire 32 E" n [31:0] $end
    $var wire 1 L SEL $end
    $var wire 32 :! D0 [31:0] $end
    $var wire 32 J D1 [31:0] $end
    $var wire 32 R! DOUT [31:0] $end
   $upscope $end
   $scope module ALU_SRC_B $end
    $var wire 32 E" n [31:0] $end
    $var wire 2 M SEL [1:0] $end
    $var wire 32 ;! D0 [31:0] $end
    $var wire 32 J D1 [31:0] $end
    $var wire 32 > D2 [31:0] $end
    $var wire 32 F" D3 [31:0] $end
    $var wire 32 S! DOUT [31:0] $end
   $upscope $end
   $scope module CTRL_UNIT $end
    $var wire 7 W! OPCODE [6:0] $end
    $var wire 3 X! FUNC3 [2:0] $end
    $var wire 1 Y! FUNC7 $end
    $var wire 2 D! RF_SEL [1:0] $end
    $var wire 1 N! SRC_A_SEL $end
    $var wire 2 O! SRC_B_SEL [1:0] $end
    $var wire 4 M! ALU_FUN [3:0] $end
    $var wire 1 E! REG_WRITE $end
    $var wire 1 F! MEM_WRITE $end
    $var wire 1 G! MEM_READ $end
    $var wire 2 H! BYTE_SEL [1:0] $end
    $var wire 1 I! SIGN $end
    $var wire 3 P! IMM_SEL [2:0] $end
    $var wire 1 J! BRANCH $end
    $var wire 3 K! BR_TYPE [2:0] $end
    $var wire 1 L! JUMP $end
    $var wire 2 C! PC_SEL [1:0] $end
   $upscope $end
   $scope module DATA_MEMORY $end
    $var wire 32 G" ADDR_DEPTH [31:0] $end
    $var wire 14 H" DATA_MEM_BASE [13:0] $end
    $var wire 32 E" ADDR_WIDTH [31:0] $end
    $var wire 1 C" CLK $end
    $var wire 1 l RDEN $end
    $var wire 1 k WEN $end
    $var wire 2 m BYTE_SEL [1:0] $end
    $var wire 1 n SIGN $end
    $var wire 14 Z! ADDR [13:0] $end
    $var wire 32 <! DATA_IN [31:0] $end
    $var wire 32 V! DATA_OUT [31:0] $end
    $var wire 32 [! data_out [31:0] $end
    $var wire 32 \! data_in [31:0] $end
    $var wire 14 ]! actual_addr [13:0] $end
   $upscope $end
   $scope module EEL_ALU $end
    $var wire 32 E" n [31:0] $end
    $var wire 32 R! OP_A [31:0] $end
    $var wire 32 S! OP_B [31:0] $end
    $var wire 4 K ALU_FUN [3:0] $end
    $var wire 1 U! ZERO $end
    $var wire 32 T! RESULT [31:0] $end
   $upscope $end
   $scope module FWD_DIN_MUX $end
    $var wire 32 E" n [31:0] $end
    $var wire 1 7! SEL $end
    $var wire 32 ^ D0 [31:0] $end
    $var wire 32 B! D1 [31:0] $end
    $var wire 32 <! DOUT [31:0] $end
   $upscope $end
   $scope module FWD_RS1_MUX $end
    $var wire 32 E" n [31:0] $end
    $var wire 2 3! SEL [1:0] $end
    $var wire 32 @! D0 [31:0] $end
    $var wire 32 T! D1 [31:0] $end
    $var wire 32 i D2 [31:0] $end
    $var wire 32 &! D3 [31:0] $end
    $var wire 32 8! DOUT [31:0] $end
   $upscope $end
   $scope module FWD_RS2_MUX $end
    $var wire 32 E" n [31:0] $end
    $var wire 2 4! SEL [1:0] $end
    $var wire 32 @! D0 [31:0] $end
    $var wire 32 T! D1 [31:0] $end
    $var wire 32 i D2 [31:0] $end
    $var wire 32 &! D3 [31:0] $end
    $var wire 32 9! DOUT [31:0] $end
   $upscope $end
   $scope module FWD_SRCA_MUX $end
    $var wire 32 E" n [31:0] $end
    $var wire 1 5! SEL $end
    $var wire 32 B D0 [31:0] $end
    $var wire 32 B! D1 [31:0] $end
    $var wire 32 :! DOUT [31:0] $end
   $upscope $end
   $scope module FWD_SRCB_MUX $end
    $var wire 32 E" n [31:0] $end
    $var wire 1 5! SEL $end
    $var wire 32 C D0 [31:0] $end
    $var wire 32 B! D1 [31:0] $end
    $var wire 32 ;! DOUT [31:0] $end
   $upscope $end
   $scope module HAZ_CTRL $end
    $var wire 1 C" CLK $end
    $var wire 5 ^! D_ADDR1 [4:0] $end
    $var wire 5 _! D_ADDR2 [4:0] $end
    $var wire 5 `! D_WADDR [4:0] $end
    $var wire 7 W! D_OP [6:0] $end
    $var wire 5 a! E_ADDR1 [4:0] $end
    $var wire 5 b! E_ADDR2 [4:0] $end
    $var wire 5 c! E_WADDR [4:0] $end
    $var wire 7 d! E_OP [6:0] $end
    $var wire 5 e! M_ADDR1 [4:0] $end
    $var wire 5 f! M_ADDR2 [4:0] $end
    $var wire 5 g! M_WADDR [4:0] $end
    $var wire 7 h! M_OP [6:0] $end
    $var wire 5 i! W_ADDR1 [4:0] $end
    $var wire 5 j! W_ADDR2 [4:0] $end
    $var wire 5 k! W_WADDR [4:0] $end
    $var wire 7 l! W_OP [6:0] $end
    $var wire 1 1! STALL $end
    $var wire 1 2! FLUSH $end
    $var wire 2 3! FWD_RS1 [1:0] $end
    $var wire 2 4! FWD_RS2 [1:0] $end
    $var wire 1 5! FWD_SRCA $end
    $var wire 1 6! FWD_SRCB $end
    $var wire 1 7! FWD_DIN $end
    $var wire 1 m! load_use_stall $end
    $var wire 1 n! flush_jalr $end
    $var wire 1 o! flush_jal $end
    $var wire 1 p! ed_fwd1 $end
    $var wire 1 q! ed_fwd2 $end
    $var wire 1 r! md_fwd1 $end
    $var wire 1 s! md_fwd2 $end
    $var wire 1 t! wd_fwd1 $end
    $var wire 1 u! wd_fwd2 $end
    $var wire 1 v! wm_load_fwd2 $end
    $var wire 1 w! we_load_fwd1 $end
    $var wire 1 x! we_load_fwd2 $end
   $upscope $end
   $scope module IMM_GEN $end
    $var wire 25 y! IR [24:0] $end
    $var wire 3 P! IMM_SEL [2:0] $end
    $var wire 32 Q! IMM [31:0] $end
    $var wire 32 z! U_TYPE [31:0] $end
    $var wire 32 {! I_TYPE [31:0] $end
    $var wire 32 |! S_TYPE [31:0] $end
    $var wire 32 }! B_TYPE [31:0] $end
    $var wire 32 ~! J_TYPE [31:0] $end
   $upscope $end
   $scope module PC_MUX $end
    $var wire 32 E" n [31:0] $end
    $var wire 2 I" SEL [1:0] $end
    $var wire 32 =! D0 [31:0] $end
    $var wire 32 J" D1 [31:0] $end
    $var wire 32 K" D2 [31:0] $end
    $var wire 32 L" D3 [31:0] $end
    $var wire 32 =! DOUT [31:0] $end
   $upscope $end
   $scope module PROG_COUNTER $end
    $var wire 1 C" CLK $end
    $var wire 1 D" RST $end
    $var wire 1 !" PC_EN $end
    $var wire 32 =! PC_IN [31:0] $end
    $var wire 32 >! PC_OUT [31:0] $end
   $upscope $end
   $scope module PROG_MEMORY $end
    $var wire 32 G" ADDR_DEPTH [31:0] $end
    $var wire 1 C" CLK $end
    $var wire 1 M" RDEN $end
    $var wire 14 "" ADDR [13:0] $end
    $var wire 32 ?! MEM_OUT [31:0] $end
   $upscope $end
   $scope module RF $end
    $var wire 1 C" CLK $end
    $var wire 5 ) ADDR1 [4:0] $end
    $var wire 5 * ADDR2 [4:0] $end
    $var wire 5 | W_ADDR [4:0] $end
    $var wire 1 ~ W_EN $end
    $var wire 32 B! W_DATA [31:0] $end
    $var wire 32 @! RS1 [31:0] $end
    $var wire 32 A! RS2 [31:0] $end
    $var wire 32 #" reg_32x32[0] [31:0] $end
    $var wire 32 $" reg_32x32[1] [31:0] $end
    $var wire 32 %" reg_32x32[2] [31:0] $end
    $var wire 32 &" reg_32x32[3] [31:0] $end
    $var wire 32 '" reg_32x32[4] [31:0] $end
    $var wire 32 (" reg_32x32[5] [31:0] $end
    $var wire 32 )" reg_32x32[6] [31:0] $end
    $var wire 32 *" reg_32x32[7] [31:0] $end
    $var wire 32 +" reg_32x32[8] [31:0] $end
    $var wire 32 ," reg_32x32[9] [31:0] $end
    $var wire 32 -" reg_32x32[10] [31:0] $end
    $var wire 32 ." reg_32x32[11] [31:0] $end
    $var wire 32 /" reg_32x32[12] [31:0] $end
    $var wire 32 0" reg_32x32[13] [31:0] $end
    $var wire 32 1" reg_32x32[14] [31:0] $end
    $var wire 32 2" reg_32x32[15] [31:0] $end
    $var wire 32 3" reg_32x32[16] [31:0] $end
    $var wire 32 4" reg_32x32[17] [31:0] $end
    $var wire 32 5" reg_32x32[18] [31:0] $end
    $var wire 32 6" reg_32x32[19] [31:0] $end
    $var wire 32 7" reg_32x32[20] [31:0] $end
    $var wire 32 8" reg_32x32[21] [31:0] $end
    $var wire 32 9" reg_32x32[22] [31:0] $end
    $var wire 32 :" reg_32x32[23] [31:0] $end
    $var wire 32 ;" reg_32x32[24] [31:0] $end
    $var wire 32 <" reg_32x32[25] [31:0] $end
    $var wire 32 =" reg_32x32[26] [31:0] $end
    $var wire 32 >" reg_32x32[27] [31:0] $end
    $var wire 32 ?" reg_32x32[28] [31:0] $end
    $var wire 32 @" reg_32x32[29] [31:0] $end
    $var wire 32 A" reg_32x32[30] [31:0] $end
    $var wire 32 B" reg_32x32[31] [31:0] $end
   $upscope $end
   $scope module RF_MUX $end
    $var wire 32 E" n [31:0] $end
    $var wire 2 } SEL [1:0] $end
    $var wire 32 u D0 [31:0] $end
    $var wire 32 N" D1 [31:0] $end
    $var wire 32 V! D2 [31:0] $end
    $var wire 32 &! D3 [31:0] $end
    $var wire 32 B! DOUT [31:0] $end
   $upscope $end
  $upscope $end
 $upscope $end
$enddefinitions $end


#0
b00000000000000000000000000000000 #
b00000000000000000000000000000000 $
b00000000000000000000000000000000 %
b00 &
b00000000000000000000000000000000 '
b00000000000000000000000000000000 (
b00000 )
b00000 *
b00000 +
b00 ,
0-
b000 .
b00000000000000000000000000000000 /
b0000 0
01
b00 2
b00000000000000000000000000000000 3
04
05
06
b00 7
08
09
b000 :
0;
0<
0=
b00000000000000000000000000000000 >
b00000000000000000000000000000000 ?
b00000000000000000000000000000000 @
b00 A
b00000000000000000000000000000000 B
b00000000000000000000000000000000 C
b00000 D
b00000 E
b00000 F
b00 G
0H
b000 I
b00000000000000000000000000000000 J
b0000 K
0L
b00 M
b00000000000000000000000000000000 N
0O
0P
0Q
b00 R
0S
0T
b000 U
0V
0W
0X
b00000000000000000000000000000000 Y
b00000000000000000000000000000000 Z
b00000000000000000000000000000000 [
b00 \
b00000000000000000000000000000000 ]
b00000000000000000000000000000000 ^
b00000 _
b00000 `
b00000 a
b00 b
0c
b000 d
b00000000000000000000000000000000 e
b0000 f
0g
b00 h
b00000000000000000000000000000000 i
0j
0k
0l
b00 m
0n
0o
b000 p
0q
0r
0s
b00000000000000000000000000000000 t
b00000000000000000000000000000000 u
b00000000000000000000000000000000 v
b00 w
b00000000000000000000000000000000 x
b00000000000000000000000000000000 y
b00000 z
b00000 {
b00000 |
b00 }
0~
b000 !!
b00000000000000000000000000000000 "!
b0000 #!
0$!
b00 %!
b00000000000000000000000000000000 &!
0'!
0(!
0)!
b00 *!
0+!
0,!
b000 -!
0.!
0/!
00!
01!
02!
b00 3!
b00 4!
05!
06!
07!
b00000000000000000000000000000000 8!
b00000000000000000000000000000000 9!
b00000000000000000000000000000000 :!
b00000000000000000000000000000000 ;!
b00000000000000000000000000000000 <!
b00000000000000000000000000000100 =!
b00000000000000000000000000000000 >!
b00000000000000000000000000000000 ?!
b00000000000000000000000000000000 @!
b00000000000000000000000000000000 A!
b00000000000000000000000000000000 B!
b00 C!
b00 D!
0E!
0F!
0G!
b00 H!
0I!
0J!
b000 K!
0L!
b0000 M!
0N!
b00 O!
b000 P!
b00000000000000000000000000000000 Q!
b00000000000000000000000000000000 R!
b00000000000000000000000000000000 S!
b00000000000000000000000000000000 T!
1U!
b00000000000000000000000000000000 V!
b0000000 W!
b000 X!
0Y!
b00000000000000 Z!
b00000000000000000000000000000000 [!
b00000000000000000000000000000000 \!
b10000000000000 ]!
b00000 ^!
b00000 _!
b00000 `!
b00000 a!
b00000 b!
b00000 c!
b0000000 d!
b00000 e!
b00000 f!
b00000 g!
b0000000 h!
b00000 i!
b00000 j!
b00000 k!
b0000000 l!
0m!
0n!
0o!
0p!
0q!
0r!
0s!
0t!
0u!
0v!
0w!
0x!
b0000000000000000000000000 y!
b00000000000000000000000000000000 z!
b00000000000000000000000000000000 {!
b00000000000000000000000000000000 |!
b00000000000000000000000000000000 }!
b00000000000000000000000000000000 ~!
1!"
b00000000000000 ""
b00000000000000000000000000000000 #"
b00000000000000000000000000000000 $"
b00000000000000000000000000000000 %"
b00000000000000000000000000000000 &"
b00000000000000000000000000000000 '"
b00000000000000000000000000000000 ("
b00000000000000000000000000000000 )"
b00000000000000000000000000000000 *"
b00000000000000000000000000000000 +"
b00000000000000000000000000000000 ,"
b00000000000000000000000000000000 -"
b00000000000000000000000000000000 ."
b00000000000000000000000000000000 /"
b00000000000000000000000000000000 0"
b00000000000000000000000000000000 1"
b00000000000000000000000000000000 2"
b00000000000000000000000000000000 3"
b00000000000000000000000000000000 4"
b00000000000000000000000000000000 5"
b00000000000000000000000000000000 6"
b00000000000000000000000000000000 7"
b00000000000000000000000000000000 8"
b00000000000000000000000000000000 9"
b00000000000000000000000000000000 :"
b00000000000000000000000000000000 ;"
b00000000000000000000000000000000 <"
b00000000000000000000000000000000 ="
b00000000000000000000000000000000 >"
b00000000000000000000000000000000 ?"
b00000000000000000000000000000000 @"
b00000000000000000000000000000000 A"
b00000000000000000000000000000000 B"
0C"
0D"
b00000000000000000000000000100000 E"
b00000000000000000000000000000000 F"
b00000000000000000000000000001110 G"
b10000000000000 H"
b00 I"
b00000000000000000000000000000000 J"
b00000000000000000000000000000000 K"
b00000000000000000000000000000000 L"
1M"
b00000000000000000000000000000000 N"
b0110111 O"
b0010111 P"
b0100011 Q"
b0000011 R"
b0010011 S"
b0110011 T"
b1101111 U"
b1100111 V"
b1100011 W"
#5000
#10000
b00000000000000000000000000000100 $
1j
b00000000000000000000000000001000 =!
b00000000000000000000000000000100 >!
b00000000000000000110010100110111 ?!
b00000000000001 ""
1C"
#15000
0C"
#20000
b00000000000000000000000000000100 #
b00000000000000000000000000001000 $
b00000000000000000110010100110111 %
b01010 +
b00000000000000000000000000000100 ?
b00000000000000000000000000001100 =!
b00000000000000000000000000001000 >!
b00000001000001010000010100010011 ?!
b11 D!
1E!
b1001 M!
1N!
b011 P!
b00000000000000000110000000000000 Q!
b0110111 W!
b110 X!
b01010 `!
b0000000000000000011001010 y!
b00000000000000000110000000000000 z!
b00000000000000000000000000001010 |!
b00000000000000000000000000001010 }!
b00000000000000000110000000000000 ~!
b00000000000010 ""
1C"
#25000
0C"
#30000
b00000000000000000000000000001000 #
b00000000000000000000000000001100 $
b00000001000001010000010100010011 %
b01010 )
b10000 *
b00000000000000000000000000000100 >
b00000000000000000000000000001000 ?
b00000000000000000110010100110111 @
b01010 F
b11 G
1H
b011 I
b00000000000000000110000000000000 J
b1001 K
1L
b00000000000000000000000000000100 Z
b01 3!
b00000000000000000110000000000000 8!
b00000000000000000000000000010000 =!
b00000000000000000000000000001100 >!
b00000000000001010000010010110011 ?!
b0000 M!
0N!
b01 O!
b000 P!
b00000000000000000000000000010000 Q!
b00000000000000000110000000000000 R!
b00000000000000000110000000000000 T!
0U!
b0010011 W!
b000 X!
b01010 ^!
b10000 _!
b01010 c!
b0110111 d!
1p!
b0000000100000101000001010 y!
b00000001000001010000000000000000 z!
b00000000000000000000000000010000 {!
b00000000000001010000000000010000 ~!
b00000000000011 ""
1C"
#35000
0C"
#40000
b00000000000000000000000000001100 #
b00000000000000000000000000010000 $
b00000000000001010000010010110011 %
b00000 *
b01001 +
b00000000000000000000000000001000 >
b00000000000000000000000000001100 ?
b00000001000001010000010100010011 @
b00000000000000000110000000000000 B
b01010 D
b10000 E
b000 I
b00000000000000000000000000010000 J
b0000 K
0L
b01 M
b00000000000000000000000000000100 Y
b00000000000000000000000000001000 Z
b00000000000000000110010100110111 [
b01010 a
b11 b
1c
b00000000000000000110000000000000 i
0j
b00000000000000000000000000000100 u
b00000000000000000110000000010000 8!
b00000000000000000110000000000000 :!
b00000000000000000000000000010100 =!
b00000000000000000000000000010000 >!
b00000000101001010010000000100011 ?!
b00000000000000000000000000000100 B!
b00 O!
b00000000000000000000000000000000 Q!
b00000000000000000000000000010000 S!
b00000000000000000110000000010000 T!
b0110011 W!
b01100000000000 Z!
b11100000000000 ]!
b00000 _!
b01001 `!
b01010 a!
b10000 b!
b0010011 d!
b01010 g!
b0110111 h!
b0000000000000101000001001 y!
b00000000000001010000000000000000 z!
b00000000000000000000000000000000 {!
b00000000000000000000000000001001 |!
b00000000000000000000100000001000 }!
b00000000000001010000000000000000 ~!
b00000000000100 ""
1C"
#45000
0C"
#50000
b00000000000000000000000000010000 #
b00000000000000000000000000010100 $
b00000000101001010010000000100011 %
b01010 *
b00000 +
b00000000000000000000000000001100 >
b00000000000000000000000000010000 ?
b00000000000001010000010010110011 @
b00000000000000000110000000010000 B
b00000 E
b01001 F
b00000000000000000000000000000000 J
b00 M
b00000000000000000000000000001000 Y
b00000000000000000000000000001100 Z
b00000001000001010000010100010011 [
b00000000000000000110000000000000 ]
b01010 _
b10000 `
b00000000000000000110000000010000 i
b00000000000000000000000000000100 t
b00000000000000000000000000001000 u
b00000000000000000110010100110111 v
b01010 |
b11 }
1~
b00000000000000000110000000000000 &!
b10 3!
b10 4!
b00000000000000000110000000010000 9!
b00000000000000000110000000010000 :!
b00000000000000000000000000011000 =!
b00000000000000000000000000010100 >!
b00000000000001010010000100000011 ?!
b00000000000000000110000000000000 B!
b00 D!
0E!
1F!
b10 H!
b01 O!
b001 P!
b00000000000000000110000000010000 R!
b00000000000000000000000000000000 S!
b0100011 W!
b010 X!
b01100000000100 Z!
b11100000000100 ]!
b01010 _!
b00000 `!
b00000 b!
b01001 c!
b0110011 d!
b01010 e!
b10000 f!
b0010011 h!
b01010 k!
b0110111 l!
0p!
1r!
1s!
b0000000010100101001000000 y!
b00000000101001010010000000000000 z!
b00000000000000000000000000001010 {!
b00000000000000000000000000000000 |!
b00000000000000000000000000000000 }!
b00000000000001010010000000001010 ~!
b00000000000101 ""
1C"
#55000
0C"
#60000
b00000000000000000000000000010100 #
b00000000000000000000000000011000 $
b00000000000001010010000100000011 %
b00000 *
b00010 +
b00000000000000000000000000010000 >
b00000000000000000000000000010100 ?
b00000000101001010010000000100011 @
b00000000000000000110000000010000 C
b01010 E
b00000 F
b00 G
0H
b001 I
b01 M
1P
b10 R
b00000000000000000000000000001100 Y
b00000000000000000000000000010000 Z
b00000000000001010000010010110011 [
b00000000000000000110000000010000 ]
b00000 `
b01001 a
b00000000000000000000000000001000 t
b00000000000000000000000000001100 u
b00000001000001010000010100010011 v
b00000000000000000110000000000000 x
b01010 z
b10000 {
b00000000000000000110000000010000 &!
b11 3!
b00 4!
b00000000000000000110000000000000 9!
b00000000000000000110000000010000 ;!
b00000000000000000000000000011100 =!
b00000000000000000000000000011000 >!
b00000000100100010000000110110011 ?!
b00000000000000000110000000000000 @!
b00000000000000000110000000010000 B!
b10 D!
1E!
0F!
1G!
1I!
b000 P!
b0000011 W!
b00000 _!
b00010 `!
b01010 b!
b00000 c!
b0100011 d!
b00000 f!
b01001 g!
b0110011 h!
b01010 i!
b10000 j!
b0010011 l!
0r!
0s!
1t!
b0000000000000101001000010 y!
b00000000000001010010000000000000 z!
b00000000000000000000000000000000 {!
b00000000000000000000000000000010 |!
b00000000000000000000000000000010 }!
b00000000000001010010000000000000 ~!
b00000000000110 ""
b00000000000000000110000000000000 -"
1C"
#65000
0C"
#70000
b00000000000000000000000000011000 #
b00000000000000000000000000011100 $
b00000000100100010000000110110011 %
b00010 )
b01001 *
b00011 +
b00000000000000000000000000010100 >
b00000000000000000000000000011000 ?
b00000000000001010010000100000011 @
b00000000000000000110000000000000 C
b00000 E
b00010 F
b10 G
1H
b000 I
0P
1Q
1S
b00000000000000000000000000010000 Y
b00000000000000000000000000010100 Z
b00000000101001010010000000100011 [
b00000000000000000110000000010000 ^
b01010 `
b00000 a
b00 b
0c
1k
b10 m
b00000000000000000000000000001100 t
b00000000000000000000000000010000 u
b00000000000001010000010010110011 v
b00000000000000000110000000010000 x
b00000 {
b01001 |
11!
b00 3!
b11 4!
b00000000000000000000000000000000 8!
b00000000000000000110000000010000 9!
b00000000000000000110000000000000 ;!
b00000000000000000110000000010000 <!
b00000000000000000000000000100000 =!
b00000000000000000000000000011100 >!
b00000000001100011000000100110011 ?!
b00000000000000000000000000000000 @!
b11 D!
0G!
b00 H!
0I!
b00 O!
b00000000000000000000000000001001 Q!
b0110011 W!
b000 X!
b00000000000000000110000000010000 \!
b00010 ^!
b01001 _!
b00011 `!
b00000 b!
b00010 c!
b0000011 d!
b01010 f!
b00000 g!
b0100011 h!
b00000 j!
b01001 k!
b0110011 l!
1m!
0t!
1u!
b0000000010010001000000011 y!
b00000000100100010000000000000000 z!
b00000000000000000000000000001001 {!
b00000000000000000000000000000011 |!
b00000000000000000000100000000010 }!
b00000000000000010000100000001000 ~!
0!"
b00000000000111 ""
b00000000000000000110000000010000 -"
1C"
#75000
0C"
#80000
b00000000001100011000000100110011 %
b00000000000000000000000000010100 Y
b00000000000000000000000000011000 Z
b00000000000000000000000000000000 [
b00000000000000000110000000000000 ^
b00000 `
b10 b
b00000000000000000000000000000000 i
0k
1n
b00000000000000000000000000010000 t
b00000000000000000000000000010100 u
b00000000101001010010000000100011 v
b00000000000000000110000000010000 y
b01010 {
b00000 |
b00 }
0~
01!
b00 4!
b00000000000000000000000000000000 9!
b00000000000000000110000000000000 <!
b00000000001000011000000010110011 ?!
b00000000000000000110000000010000 A!
b00000000000000000000000000010100 B!
b00000000000000000000000000000011 Q!
b00000000000000 Z!
b00000000000000000110000000000000 \!
b10000000000000 ]!
b00011 ^!
b00011 _!
b00010 `!
b00000 e!
b00000 f!
b0000000 h!
b01010 j!
b00000 k!
b0100011 l!
0m!
0u!
b0000000000110001100000010 y!
b00000000001100011000000000000000 z!
b00000000000000000000000000000011 {!
b00000000000000000000000000000010 |!
b00000000000000000000000000000010 }!
b00000000000000011000100000000010 ~!
1!"
b00000000000000000110000000010000 ,"
1C"
#85000
0C"
